Challenge 2: Spicing things up with ggplot2
…
This is a great place to let your creativity show! Make sure to indicate what additional touches you added, and provide any online references you used.

Getting Set-up

Within this document, make sure to specify that your plots are contained in your document (self-contained: true) and that your code is visible to the reader (echo: true). If there are other formatting specifics you would like to include, feel free to toss those in the YAML, too!

Next, create a setup code chunk to load the packages and read in the surveys.csv data file exactly how you did in Lab 2.

Code

library(tidyverse)
surveys = read_csv(here::here("data", "surveys.csv"))
surveys

# A tibble: 30,463 × 15
   record_id month   day  year plot_id species_id sex   hindfoot_length weight
       <dbl> <dbl> <dbl> <dbl>   <dbl> <chr>      <chr>           <dbl>  <dbl>
 1        63     8    19  1977       3 DM         M                  35     40
 2        64     8    19  1977       7 DM         M                  37     48
 3        65     8    19  1977       4 DM         F                  34     29
 4        66     8    19  1977       4 DM         F                  35     46
 5        67     8    19  1977       7 DM         M                  35     36
 6        68     8    19  1977       8 DO         F                  32     52
 7        69     8    19  1977       2 PF         M                  15      8
 8        71     8    19  1977       7 DM         F                  36     35
 9        74     8    19  1977       8 PF         M                  12      7
10        75     8    19  1977       8 DM         F                  32     22
# ℹ 30,453 more rows
# ℹ 6 more variables: date <date>, day_of_week <chr>, plot_type <chr>,
#   genus <chr>, species <chr>, taxa <chr>
…
